ESC - main
…
# Create a summary table for counts and levels
count_levels_summary <- filtered_data %>%
  select(where(is.factor)) %>%  # Select only factor variables
  summarise(across(everything(), 
                   list(Count = ~sum(!is.na(.)),
                        Levels = ~nlevels(.)), 
                   .names = "{.col}_{.fn}")) %>%
  pivot_longer(cols = everything(), 
               names_to = c("Variable", ".value"), 
               names_pattern = "(.*)_(.*)")

# Print the counts and levels summary table
print(count_levels_summary)

# A tibble: 141 × 3
   Variable            Count Levels
   <chr>               <int>  <int>
 1 UNIQUE_ID            3985   1708
 2 YOUTH_NUM_IN_COHORT  3985   3985
 3 GENDER               3985      2
 4 RACE                 3985      5
 5 ETHNICITY            3985      3
 6 RACNICITY            3985      5
 7 ASSESSMENT_TYPE      3985      3
 8 ASSESSMENT_PO        3984    624
 9 Total_Risk_Desc      3985      4
10 Prior_Risk_Desc      3985      3
# ℹ 131 more rows
…
# Format the frequency data for better readability
frequency_summary$Frequency <- sapply(frequency_summary$Frequency, toString)

# Print the frequency summary table for factors with less than 100 levels
print(frequency_summary)

# A tibble: 134 × 2
   Variable                      Frequency               
   <chr>                         <chr>                   
 1 GENDER_Frequency              619, 3366               
 2 RACE_Frequency                7, 1871, 204, 4, 1899   
 3 ETHNICITY_Frequency           614, 3354, 17           
 4 RACNICITY_Frequency           1784, 614, 143, 17, 1427
 5 ASSESSMENT_TYPE_Frequency     94, 1750, 2141          
 6 Total_Risk_Desc_Frequency     1265, 491, 2165, 64     
 7 Prior_Risk_Desc_Frequency     561, 1907, 1517         
 8 Family_Risk_Desc_Frequency    785, 1719, 1481         
 9 Education_Risk_Desc_Frequency 1416, 527, 2042         
10 Peer_Risk_Desc_Frequency      1729, 635, 1621         
# ℹ 124 more rows
…
# Create a summary table for counts and levels
count_levels_summary <- filtered_data %>%
  select(where(is.factor)) %>%  # Select only factor variables
  summarise(across(everything(), 
                   list(Count = ~sum(!is.na(.)),
                        Levels = ~nlevels(.)), 
                   .names = "{.col}_{.fn}")) %>%
  pivot_longer(cols = everything(), 
               names_to = c("Variable", ".value"), 
               names_pattern = "(.*)_(.*)")

# Print the counts and levels summary table
print(count_levels_summary)

# A tibble: 141 × 3
   Variable            Count Levels
   <chr>               <int>  <int>
 1 UNIQUE_ID            3985   1708
 2 YOUTH_NUM_IN_COHORT  3985   3985
 3 GENDER               3985      2
 4 RACE                 3985      5
 5 ETHNICITY            3985      3
 6 RACNICITY            3985      5
 7 ASSESSMENT_TYPE      3985      3
 8 ASSESSMENT_PO        3984    624
 9 Total_Risk_Desc      3985      4
10 Prior_Risk_Desc      3985      3
# ℹ 131 more rows
…
# Explode the list column into separate rows for each category
frequency_summary <- frequency_summary %>%
  unnest(Frequency)

# Rename columns for clarity
colnames(frequency_summary)[3:4] <- c("Category", "Count")

# Print the frequency summary table for factors with less than 100 levels
print(frequency_summary)

# A tibble: 1,206 × 3
   Variable            name                                Category   
   <chr>               <chr>                               <table[1d]>
 1 GENDER_Frequency    Female                               619       
 2 GENDER_Frequency    Male                                3366       
 3 RACE_Frequency      Asian                                  7       
 4 RACE_Frequency      Black                               1871       
 5 RACE_Frequency      Multiracial                          204       
 6 RACE_Frequency      Native Hawaiian or Pacific Islander    4       
 7 RACE_Frequency      White                               1899       
 8 ETHNICITY_Frequency Hispanic                             614       
 9 ETHNICITY_Frequency Non-Hispanic                        3354       
10 ETHNICITY_Frequency Unknown                               17       
# ℹ 1,196 more rows
…
