ESC - ESC-PA_JCMS
…
ESC-PA_JCMS
 Code

# A tibble: 447 × 2
   column              percent_missing
   <chr>                         <dbl>
 1 unique_id                         0
 2 youth_num_in_cohort               0
 3 admission_date                    0
 4 service_start_date                0
 5 service_end_date                  0
 6 dob                               0
 7 gender                            0
 8 race                              0
 9 ethnicity                         0
10 racnicity                         0
# ℹ 437 more rows
…
